…
iris_without_missing_list = map(iris_with_missing, replace_missing)

iris_without_missing_tibble = map_dfr(iris_with_missing, replace_missing)

iris_without_missing_tibble
```

    ## # A tibble: 150 x 5
    ##    Sepal.Length     Sepal.Width Petal.Length     Petal.Width      Species
    ##    <chr>            <chr>       <chr>            <chr>            <chr>  
    ##  1 5.1              3.5         1.4              0.2              setosa 
    ##  2 4.9              3           1.4              0.2              setosa 
    ##  3 4.7              3.2         1.3              0.2              setosa 
    ##  4 4.6              3.1         1.5              1.19230769230769 setosa 
    ##  5 5                3.6         1.4              0.2              setosa 
    ##  6 5.4              3.9         1.7              0.4              setosa 
    ##  7 5.81923076923077 3.4         1.4              0.3              setosa 
    ##  8 5                3.4         1.5              0.2              setosa 
    ##  9 4.4              2.9         1.4              0.2              setosa 
    ## 10 4.9              3.1         3.76538461538462 0.1              setosa 
    ## # ... with 140 more rows
…
